[
    {
        "artist": "Bjeloglavi Sup Blues Band",
        "title": "New Year's Blues",
        "url": "/music/blue.mp3"
    },
    {
        "artist": "Zagreb Jazz Trio",
        "title": "Jazz",
        "url": "/music/jazz.mp3"
    },
    {
        "artist": "Turbo Kolektiv",
        "title": "Super Minimal",
        "url": "/music/minimalish.mp3"
    },
    {
        "artist": "Bjeloglavi Sup Blues Band",
        "title": "Slow River blues",
        "url": "/music/slower.mp3"
    }
]
